000000000
0.773
000000001
0.787
000000010
0.78
000000011
0.778
000000100
0.766
000000101
0.811
000000110
0.776
000000111
0.809
000001000
0.807
000001001
0.85
000001010
0.824
000001011
0.822
000001100
0.834
000001101
0.821
000001110
0.825
000001111
0.822
000010000
4.151
000010001
4.368
000010010
4.122
000010011
4.105
000010100
4.157
000010101
4.263
000010110
4.108
000010111
4.239
000011000
4.381
000011001
4.162
000011010
4.165
000011011
4.171
000011100
4.278
000011101
4.436
000011110
4.23
000011111
4.135
000100000
0.853
000100001
0.788
000100010
0.779
000100011
0.812
000100100
0.782
000100101
0.803
000100110
0.791
000100111
0.775
000101000
0.822
000101001
0.837
000101010
0.826
000101011
0.852
000101100
0.807
000101101
0.84
000101110
0.843
000101111
0.824
000110000
4.204
000110001
4.42
000110010
4.219
000110011
4.117
000110100
4.233
000110101
4.163
000110110
4.122
000110111
4.169
000111000
4.247
000111001
4.201
000111010
4.177
000111011
4.153
000111100
4.197
000111101
4.205
000111110
4.258
000111111
4.178
001000000
4.344
001000001
4.417
001000010
4.368
001000011
4.447
001000100
4.464
001000101
4.602
001000110
4.451
001000111
4.384
001001000
4.197
001001001
4.29
001001010
4.248
001001011
4.752
001001100
4.312
001001101
4.301
001001110
4.283
001001111
4.264
001010000
7.767
001010001
7.775
001010010
7.751
001010011
7.847
001010100
7.804
001010101
7.727
001010110
7.727
001010111
7.739
001011000
7.726
001011001
7.645
001011010
7.642
001011011
7.573
001011100
7.621
001011101
8.253
001011110
7.58
001011111
7.7
001100000
4.351
001100001
4.428
001100010
4.408
001100011
4.407
001100100
4.467
001100101
4.462
001100110
4.43
001100111
4.411
001101000
4.225
001101001
4.298
001101010
4.226
001101011
4.302
001101100
4.3
001101101
4.296
001101110
4.337
001101111
4.266
001110000
7.724
001110001
7.746
001110010
7.776
001110011
7.812
001110100
7.749
001110101
8.208
001110110
7.741
001110111
7.71
001111000
7.653
001111001
7.607
001111010
7.692
001111011
7.619
001111100
7.613
001111101
7.604
001111110
7.602
001111111
7.572
010000000
5.422
010000001
5.313
010000010
5.274
010000011
5.625
010000100
5.299
010000101
5.266
010000110
5.797
010000111
5.296
010001000
5.415
010001001
5.361
010001010
5.317
010001011
5.423
010001100
5.374
010001101
5.303
010001110
5.349
010001111
5.332
010010000
3.513
010010001
3.669
010010010
3.953
010010011
3.724
010010100
3.479
010010101
3.541
010010110
2.746
010010111
2.773
010011000
3.55
010011001
3.733
010011010
3.772
010011011
3.803
010011100
4.157
010011101
3.613
010011110
2.798
010011111
2.787
010100000
5.295
010100001
5.58
010100010
5.276
010100011
5.303
010100100
5.4
010100101
5.277
010100110
5.331
010100111
5.283
010101000
5.354
010101001
5.34
010101010
5.367
010101011
5.393
010101100
5.394
010101101
5.323
010101110
5.36
010101111
5.324
010110000
3.552
010110001
3.667
010110010
3.713
010110011
3.741
010110100
3.559
010110101
4.172
010110110
2.694
010110111
2.831
010111000
3.606
010111001
3.719
010111010
3.779
010111011
3.782
010111100
3.583
010111101
3.832
010111110
2.781
010111111
2.825
011000000
3.292
011000001
3.388
011000010
3.324
011000011
3.377
011000100
3.306
011000101
3.349
011000110
3.46
011000111
3.315
011001000
3.195
011001001
3.183
011001010
3.203
011001011
3.229
011001100
3.181
011001101
3.209
011001110
3.195
011001111
3.167
011010000
0.84
011010001
0.837
011010010
0.837
011010011
0.844
011010100
0.827
011010101
0.832
011010110
0.831
011010111
0.815
011011000
0.731
011011001
0.732
011011010
0.731
011011011
0.72
011011100
0.722
011011101
0.714
011011110
0.719
011011111
0.699
011100000
3.35
011100001
3.354
011100010
3.364
011100011
3.324
011100100
3.309
011100101
3.304
011100110
3.302
011100111
3.538
011101000
3.267
011101001
3.205
011101010
3.205
011101011
3.193
011101100
3.171
011101101
3.222
011101110
3.177
011101111
3.172
011110000
0.862
011110001
0.844
011110010
0.856
011110011
0.828
011110100
0.825
011110101
0.837
011110110
0.822
011110111
0.822
011111000
0.741
011111001
0.733
011111010
0.735
011111011
0.721
011111100
0.721
011111101
0.716
011111110
0.722
011111111
0.725
100000000
0.757
100000001
0.799
100000010
0.789
100000011
0.795
100000100
0.763
100000101
0.789
100000110
0.767
100000111
0.777
100001000
0.816
100001001
0.824
100001010
0.84
100001011
0.837
100001100
0.814
100001101
0.815
100001110
0.825
100001111
0.821
100010000
4.078
100010001
4.095
100010010
4.162
100010011
4.127
100010100
4.085
100010101
4.211
100010110
4.11
100010111
4.215
100011000
4.17
100011001
4.15
100011010
4.169
100011011
4.176
100011100
4.216
100011101
4.12
100011110
4.19
100011111
4.222
100100000
0.784
100100001
0.775
100100010
0.787
100100011
0.791
100100100
0.762
100100101
0.778
100100110
0.767
100100111
0.782
100101000
0.835
100101001
0.831
100101010
0.834
100101011
0.84
100101100
0.809
100101101
0.819
100101110
0.822
100101111
0.824
100110000
4.139
100110001
4.334
100110010
4.355
100110011
4.161
100110100
4.144
100110101
4.113
100110110
4.172
100110111
4.153
100111000
4.159
100111001
4.186
100111010
4.168
100111011
4.219
100111100
4.182
100111101
4.141
100111110
4.157
100111111
4.318
101000000
4.425
101000001
5.125
101000010
4.362
101000011
4.429
101000100
4.87
101000101
5.093
101000110
4.404
101000111
4.478
101001000
4.215
101001001
4.23
101001010
4.246
101001011
4.313
101001100
4.238
101001101
4.318
101001110
4.313
101001111
4.303
101010000
7.736
101010001
8.358
101010010
7.756
101010011
7.745
101010100
7.695
101010101
7.672
101010110
7.749
101010111
8.13
101011000
7.58
101011001
7.583
101011010
7.661
101011011
7.619
101011100
8.216
101011101
8.16
101011110
7.591
101011111
7.564
101100000
4.349
101100001
4.397
101100010
4.365
101100011
4.428
101100100
4.39
101100101
4.429
101100110
4.474
101100111
4.399
101101000
4.206
101101001
4.27
101101010
4.26
101101011
4.326
101101100
4.581
101101101
4.28
101101110
4.313
101101111
4.275
101110000
7.708
101110001
7.781
101110010
7.72
101110011
7.843
101110100
7.694
101110101
7.73
101110110
7.749
101110111
7.81
101111000
8.307
101111001
7.567
101111010
7.632
101111011
7.585
101111100
8.247
101111101
7.58
101111110
7.66
101111111
7.662
110000000
5.355
110000001
5.254
110000010
5.272
110000011
5.302
110000100
5.298
110000101
5.286
110000110
5.269
110000111
5.214
110001000
5.398
110001001
5.338
110001010
5.348
110001011
5.439
110001100
5.386
110001101
5.357
110001110
5.344
110001111
5.261
110010000
3.656
110010001
3.673
110010010
3.933
110010011
4.917
110010100
3.656
110010101
3.665
110010110
2.695
110010111
2.705
110011000
3.695
110011001
3.704
110011010
3.907
110011011
3.792
110011100
3.725
110011101
3.798
110011110
2.776
110011111
2.742
110100000
5.295
110100001
5.25
110100010
5.279
110100011
5.273
110100100
5.304
110100101
5.281
110100110
5.282
110100111
5.185
110101000
5.353
110101001
5.298
110101010
5.377
110101011
5.341
110101100
5.386
110101101
5.375
110101110
5.373
110101111
5.25
110110000
3.593
110110001
3.651
110110010
3.832
110110011
3.793
110110100
3.867
110110101
3.624
110110110
2.74
110110111
2.803
110111000
3.691
110111001
3.725
110111010
3.884
110111011
3.831
110111100
3.74
110111101
3.74
110111110
2.761
110111111
2.893
111000000
3.323
111000001
3.305
111000010
3.322
111000011
3.362
111000100
3.289
111000101
3.383
111000110
3.332
111000111
3.301
111001000
3.164
111001001
3.171
111001010
3.224
111001011
3.343
111001100
3.214
111001101
3.228
111001110
3.214
111001111
3.176
111010000
0.83
111010001
0.827
111010010
0.84
111010011
0.854
111010100
0.827
111010101
0.841
111010110
0.823
111010111
0.823
111011000
0.724
111011001
0.716
111011010
0.749
111011011
0.705
111011100
0.73
111011101
0.731
111011110
0.718
111011111
0.717
111100000
3.327
111100001
3.321
111100010
3.328
111100011
3.317
111100100
3.315
111100101
3.322
111100110
3.303
111100111
3.307
111101000
4.614
111101001
3.204
111101010
3.216
111101011
3.193
111101100
3.203
111101101
3.216
111101110
3.176
111101111
3.196
111110000
0.827
111110001
0.835
111110010
0.839
111110011
0.825
111110100
0.826
111110101
0.84
111110110
0.841
111110111
0.82
111111000
0.719
111111001
0.719
111111010
0.73
111111011
0.734
111111100
0.723
111111101
0.727
111111110
0.72
111111111
0.71
